{
  "welcome": "Dealer: Welcome to the roulette, game initializing...",
  "bets_please": "Dealer: Place your bets, please.",
  "bet_options": "1. Bet number\n2. Bet even/odd\n3. Bet red/black\n4. Bet sector \n --------------------- \n5. Check balance \n6. Quit playing",
  "choose_number": "Dealer: Choose number, please.",
  "choose_sector": "Dealer: Choose sector and type it w/out the brackets, please: [1-12], [13-24], [25-36]",
  "choose_even_odd": "Dealer: Even or odd?",
  "choose_color": "Dealer: Red or black?",
  "bet_size": "Dealer: Bet amount, please:",
  "continue_betting": "Dealer: Would you like to place more bets? [Y/N]",
  "roulette_rolling": "Dealer: No more bets, roulette is rolling...",
  "winning_number_announce": "Dealer: Winning number is... ",
  "announce_winning_bet": "Dealer: Your bet: ",
  "current_balance": "Dealer: Your current balance is: ",
  "not_enough_money": "Dealer: You don't have enough funds to play, please go back to the main menu and deposit some funds.",
  "bet_too_big": "You do not have enough funds for such a bet, please adjust your bet accordingly.",
  "goodbye": "Thanks for playing. See you again!"
}